module auto-dns-init

go 1.12

require (
	github.com/gogo/protobuf v1.2.1 // indirect
	github.com/googleapis/gnostic v0.3.0 // indirect
	github.com/hashicorp/golang-lru v0.5.3 // indirect
	github.com/json-iterator/go v1.1.7 // indirect
	github.com/modern-go/reflect2 v1.0.1 // indirect
	github.com/pkg/errors v0.8.1
	golang.org/x/crypto v0.0.0-20190701094942-4def268fd1a4 // indirect
	golang.org/x/oauth2 v0.0.0-20190604053449-0f29369cfe45 // indirect
	golang.org/x/time v0.0.0-20190308202827-9d24e82272b4 // indirect
	gopkg.in/inf.v0 v0.9.1 // indirect
	gopkg.in/yaml.v2 v2.2.2 // indirect
	k8s.io/api v0.0.0-20190313235455-40a48860b5ab
	k8s.io/apimachinery v0.0.0-20190313205120-d7deff9243b1
	k8s.io/client-go v11.0.0+incompatible
	k8s.io/klog v0.3.3
	k8s.io/utils v0.0.0-20190712204705-3dccf664f023
	sigs.k8s.io/yaml v1.1.0 // indirect
)
